Project_1
…
storms1 <- storms %>% pivot_longer(cols = c("ts_diameter", "hu_diameter"), 
    names_to = "storm_type", values_to = "diameter")
storms1 <- storms1 %>% separate(storm_type, into = c("type", 
    NA), sep = 2)
storms1 <- storms1 %>% pivot_longer(c("lat":"long"), names_to = "coordinates", 
    values_to = "coordinate_values")
storms1 %>% na.omit()

## # A tibble: 6,252 x 14
##       X1 name   year month   day  hour status category  wind pressure type 
##    <dbl> <chr> <dbl> <dbl> <dbl> <dbl> <chr>     <dbl> <dbl>    <dbl> <chr>
##  1  6472 Alex   2004     7    31    18 tropi…       -1    25     1010 ts   
##  2  6472 Alex   2004     7    31    18 tropi…       -1    25     1010 ts   
##  3  6472 Alex   2004     7    31    18 tropi…       -1    25     1010 hu   
##  4  6472 Alex   2004     7    31    18 tropi…       -1    25     1010 hu   
##  5  6473 Alex   2004     8     1     0 tropi…       -1    25     1009 ts   
##  6  6473 Alex   2004     8     1     0 tropi…       -1    25     1009 ts   
##  7  6473 Alex   2004     8     1     0 tropi…       -1    25     1009 hu   
##  8  6473 Alex   2004     8     1     0 tropi…       -1    25     1009 hu   
##  9  6474 Alex   2004     8     1     6 tropi…       -1    25     1009 ts   
## 10  6474 Alex   2004     8     1     6 tropi…       -1    25     1009 ts   
## # … with 6,242 more rows, and 3 more variables: diameter <lgl>,
## #   coordinates <chr>, coordinate_values <dbl>
…
merged <- storms1 %>% full_join(sealevel, by = c(year = "Year"))
merged <- merged %>% na.omit()
merged <- select(merged, -X1)
dim(merged)

## [1] 6816   13

I merged the two datasets together using the full_join function because I didn’t want to drop any rows, even if there wasn’t a match. The “sealevel” dataset only contains 2 columns: “year” and “sea level”, so I wanted to preserve all the entries before omitting any NAs. The common variable between the “storms1” dataset and the “sealevel” dataset was named differently, one being “Year” and the other being “year”, so I had to merge keeping that in mind. There were multiple observations for the joining variable, but each row had unique characteristics relative to the year, so only ended up omitting NAs rather than collapsing. I also omitted the NAs to further clean up the dataset and make it more usable when working with summary statistics and for developing plots. After dropping these NA values, the merged dataset contains 6,816 rows and 13 columns.

3. Wrangling

merged %>% filter(category >= 3) %>% arrange(desc(SeaLevel)) %>% 
    select(month, category, SeaLevel)

## # A tibble: 252 x 3
##    month category SeaLevel
##    <dbl>    <dbl>    <dbl>
##  1     9        3     4.55
##  2     9        3     4.55
##  3     9        3     4.55
##  4     9        3     4.55
##  5     9        3     4.55
##  6     9        3     4.55
##  7     9        3     4.55
##  8     9        3     4.55
##  9     9        3     4.55
## 10     9        3     4.55
## # … with 242 more rows
…
