Project 2
…
Setting up the Dataset

library(tidyverse)
storms <- read_csv("storms.csv")
storms <- storms %>% pivot_longer(cols = c("ts_diameter", "hu_diameter"), 
    names_to = "storm_type", values_to = "diameter")
storms <- storms %>% separate(storm_type, into = c("type", NA), 
    sep = 2)
storms <- storms %>% pivot_longer(c("lat":"long"), names_to = "coordinates", 
    values_to = "coordinate_values")
storms %>% na.omit()

## # A tibble: 6,252 x 14
##       X1 name   year month   day  hour status category  wind pressure type 
##    <dbl> <chr> <dbl> <dbl> <dbl> <dbl> <chr>     <dbl> <dbl>    <dbl> <chr>
##  1  6472 Alex   2004     7    31    18 tropi…       -1    25     1010 ts   
##  2  6472 Alex   2004     7    31    18 tropi…       -1    25     1010 ts   
##  3  6472 Alex   2004     7    31    18 tropi…       -1    25     1010 hu   
##  4  6472 Alex   2004     7    31    18 tropi…       -1    25     1010 hu   
##  5  6473 Alex   2004     8     1     0 tropi…       -1    25     1009 ts   
##  6  6473 Alex   2004     8     1     0 tropi…       -1    25     1009 ts   
##  7  6473 Alex   2004     8     1     0 tropi…       -1    25     1009 hu   
##  8  6473 Alex   2004     8     1     0 tropi…       -1    25     1009 hu   
##  9  6474 Alex   2004     8     1     6 tropi…       -1    25     1009 ts   
## 10  6474 Alex   2004     8     1     6 tropi…       -1    25     1009 ts   
## # … with 6,242 more rows, and 3 more variables: diameter <lgl>,
## #   coordinates <chr>, coordinate_values <dbl>
…
